EESchema Schematic File Version 4
EELAYER 30 0
EELAYER END
$Descr A4 11693 8268
encoding utf-8
Sheet 1 1
Title ""
Date ""
Rev ""
Comp ""
Comment1 ""
Comment2 ""
Comment3 ""
Comment4 ""
$EndDescr
Wire Wire Line
	6300 3100 6300 3050
Wire Wire Line
	6300 3050 6800 3050
Wire Wire Line
	7600 3050 7600 3100
$Comp
L Device:R R3
U 1 1 5DF6C1EF
P 7600 3250
F 0 "R3" H 7670 3296 50  0000 L CNN
F 1 "100R" H 7670 3205 50  0000 L CNN
F 2 "Resistor_SMD:R_1206_3216Metric_Pad1.42x1.75mm_HandSolder" V 7530 3250 50  0001 C CNN
F 3 "~" H 7600 3250 50  0001 C CNN
F 4 "311-100FRCT-ND" H 7600 3250 50  0001 C CNN "SKU"
	1    7600 3250
	1    0    0    -1  
$EndComp
$Comp
L Device:LED D3
U 1 1 5DF6F111
P 7600 3600
F 0 "D3" V 7639 3483 50  0000 R CNN
F 1 "LED" V 7548 3483 50  0000 R CNN
F 2 "usb-light:S1W0-3258-LED" H 7600 3600 50  0001 C CNN
F 3 "~" H 7600 3600 50  0001 C CNN
F 4 " 897-1295-1-ND" H 7600 3600 50  0001 C CNN "SKU"
	1    7600 3600
	0    -1   -1   0   
$EndComp
Wire Wire Line
	7600 3400 7600 3450
Wire Wire Line
	7600 3750 7600 3800
Wire Wire Line
	7200 3050 7200 3100
$Comp
L Device:R R2
U 1 1 5DF7096C
P 7200 3250
F 0 "R2" H 7270 3296 50  0000 L CNN
F 1 "100R" H 7270 3205 50  0000 L CNN
F 2 "Resistor_SMD:R_1206_3216Metric_Pad1.42x1.75mm_HandSolder" V 7130 3250 50  0001 C CNN
F 3 "~" H 7200 3250 50  0001 C CNN
F 4 "311-100FRCT-ND" H 7200 3250 50  0001 C CNN "SKU"
	1    7200 3250
	1    0    0    -1  
$EndComp
$Comp
L Device:LED D2
U 1 1 5DF70976
P 7200 3600
F 0 "D2" V 7239 3483 50  0000 R CNN
F 1 "LED" V 7148 3483 50  0000 R CNN
F 2 "usb-light:S1W0-3258-LED" H 7200 3600 50  0001 C CNN
F 3 "~" H 7200 3600 50  0001 C CNN
F 4 " 897-1295-1-ND" H 7200 3600 50  0001 C CNN "SKU"
	1    7200 3600
	0    -1   -1   0   
$EndComp
Wire Wire Line
	7200 3400 7200 3450
Wire Wire Line
	6800 3050 6800 3100
$Comp
L Device:R R1
U 1 1 5DF71C48
P 6800 3250
F 0 "R1" H 6870 3296 50  0000 L CNN
F 1 "100R" H 6870 3205 50  0000 L CNN
F 2 "Resistor_SMD:R_1206_3216Metric_Pad1.42x1.75mm_HandSolder" V 6730 3250 50  0001 C CNN
F 3 "~" H 6800 3250 50  0001 C CNN
F 4 "311-100FRCT-ND" H 6800 3250 50  0001 C CNN "SKU"
	1    6800 3250
	1    0    0    -1  
$EndComp
$Comp
L Device:LED D1
U 1 1 5DF71C52
P 6800 3600
F 0 "D1" V 6839 3483 50  0000 R CNN
F 1 "LED" V 6748 3483 50  0000 R CNN
F 2 "usb-light:S1W0-3258-LED" H 6800 3600 50  0001 C CNN
F 3 "~" H 6800 3600 50  0001 C CNN
F 4 " 897-1295-1-ND" H 6800 3600 50  0001 C CNN "SKU"
	1    6800 3600
	0    -1   -1   0   
$EndComp
Wire Wire Line
	6800 3400 6800 3450
Wire Wire Line
	6800 3750 6800 3800
Connection ~ 6800 3050
Wire Wire Line
	6800 3050 7200 3050
Connection ~ 6800 3800
Wire Wire Line
	6800 3800 7200 3800
Connection ~ 7200 3050
Wire Wire Line
	7200 3050 7600 3050
Wire Wire Line
	7200 3750 7200 3800
Connection ~ 7200 3800
Wire Wire Line
	7200 3800 7600 3800
Wire Wire Line
	5350 3800 5350 3700
Wire Wire Line
	6450 3800 6800 3800
$Comp
L Connector:Conn_01x02_Female J1
U 1 1 5DF840A0
P 6350 4000
F 0 "J1" V 6196 3812 50  0000 R CNN
F 1 "Conn_01x02_Female" V 6287 3812 50  0000 R CNN
F 2 "usb-light:copper-tape-pad" H 6350 4000 50  0001 C CNN
F 3 "~" H 6350 4000 50  0001 C CNN
	1    6350 4000
	0    -1   1    0   
$EndComp
$Comp
L Connector:USB_B_Micro J2
U 1 1 5DF701F5
P 5450 3300
F 0 "J2" H 5507 3767 50  0000 C CNN
F 1 "USB_B_Micro" H 5507 3676 50  0000 C CNN
F 2 "Connector_USB:USB_Micro-B_Wuerth_614105150721_Vertical" H 5600 3250 50  0001 C CNN
F 3 "~" H 5600 3250 50  0001 C CNN
F 4 "2073-USB3131-30-0230-ACT-ND" H 5450 3300 50  0001 C CNN "SKU"
	1    5450 3300
	1    0    0    -1  
$EndComp
Wire Wire Line
	5350 3800 5450 3800
Wire Wire Line
	5450 3700 5450 3800
Connection ~ 5450 3800
Wire Wire Line
	5450 3800 6350 3800
Wire Wire Line
	6300 3100 5750 3100
Text Label 5850 3800 0    50   ~ 0
GND
Text Label 5950 3100 0    50   ~ 0
VBUS
Text Label 6500 3800 0    50   ~ 0
GND_LED
$EndSCHEMATC
