(module S1W0-3258-LED (layer F.Cu) (tedit 5DFB162F)
  (fp_text reference REF** (at 0 0.5) (layer F.SilkS)
    (effects (font (size 1 1) (thickness 0.15)))
  )
  (fp_text value S1W0-3258-LED (at 0 -0.5) (layer F.Fab)
    (effects (font (size 1 1) (thickness 0.15)))
  )
  (fp_line (start -3 -1.25) (end 1.25 -1.25) (layer F.CrtYd) (width 0.12))
  (fp_line (start 1.25 -1.25) (end 1.25 1.25) (layer F.CrtYd) (width 0.12))
  (fp_line (start 1.25 1.25) (end -3 1.25) (layer F.CrtYd) (width 0.12))
  (fp_line (start -3 1.25) (end -3 -1.25) (layer F.CrtYd) (width 0.12))
  (pad 1 smd rect (at 0 0) (size 2.3 2.2) (layers F.Cu F.Paste F.Mask))
  (pad 2 smd rect (at -2.2 0) (size 1.4 2.2) (layers F.Cu F.Paste F.Mask))
)
